…
Possible results tables
=======================

-frequency of each feeding tyoe/ location

    ## # A tibble: 5 x 2
    ##             feeding_type     n
    ##                    <chr> <int>
    ## 1          insectivorous    32
    ## 2            piscivorous 20775
    ## 3          planktivorous  1569
    ## 4             predacious 12394
    ## 5 predacious/piscivorous   161

    ## # A tibble: 25 x 2
    ##                                  geographic     n
    ##                                       <chr> <int>
    ##  1     Andaman Sea (West of South Thailand)    34
    ##  2                      Antarctic Peninsula  2229
    ##  3                Apalachicola Bay, Florida   173
    ##  4                           Atlantic Ocean 16084
    ##  5 Cape Cod Bay, Gulf of Maine, New England    88
    ##  6                              Catalan Sea   439
    ##  7            Crooked Island Sound, Florida   103
    ##  8                    Eastern Mediterranean   367
    ##  9             Europe, Celtic Sea ecosystem  2091
    ## 10                    French Polynesian EEZ  4011
    ## # ... with 15 more rows
…
